{
  "name": "English Apps 2",
  "image": "portada.jpg",
  "temas": [
    {
      "tema": "Introduction",
      "subtemas": [      
        {
          "tema": "Block 4",
          "url": "index.html"
        },
        {
          "tema": "This is what I know",
          "url": "tema1.0.0.html"
        },
        {
          "tema": "My formative project",
          "url": "tema2.0.0.html"
        }
      ]
    },
    {
      "tema": "Lesson 1 Resolutions",
      "subtemas": [
        {
          "tema": "Express yourself",
          "url": "tema3.0.0.html"
        },
        {
          "tema": "Use new words",
          "url": "tema4.0.0.html"
        },
        {
          "tema": "Explore the world",
          "url": "tema5.0.0.html"
        },
        {
          "tema": "Discover the language",
          "url": "tema6.0.0.html"
        },
        {
          "tema": "Improve your information",
          "url": "tema7.0.0.html"
        },
        {
          "tema": "My formative project",
          "url": "tema8.0.0.html"
        },
        {
          "tema": "Develop social-emotional skills",
          "url": "tema9.0.0.html"
        },
        {
          "tema": "Formative evaluation",
          "url": "tema10.0.0.html"
        }
      ]
    },
        {
      "tema": "Lesson 2 Life in the future",
      "subtemas": [
        {
          "tema": "Express yourself",
          "url": "tema11.0.0.html"
        },
        {
          "tema": "Use new words",
          "url": "tema12.0.0.html"
        },
        {
          "tema": "Explore the world",
          "url": "tema13.0.0.html"
        },
        {
          "tema": "Discover the language",
          "url": "tema14.0.0.html"
        },
        {
          "tema": "Improve your information",
          "url": "tema15.0.0.html"
        },
        {
          "tema": "My formative project",
          "url": "tema16.0.0.html"
        },
        {
          "tema": "Develop social-emotional skills",
          "url": "tema17.0.0.html"
        },
        {
          "tema": "Formative evaluation",
          "url": "tema18.0.0.html"
        }
      ]
    },
    {
      "tema": "Lesson 3 Traveling",
      "subtemas": [
        {
          "tema": "Express yourself",
          "url": "tema19.0.0.html"
        },
        {
          "tema": "Use new words",
          "url": "tema20.0.0.html"
        },
        {
          "tema": "Explore the world",
          "url": "tema21.0.0.html"
        },
        {
          "tema": "Discover the language",
          "url": "tema22.0.0.html"
        },
        {
          "tema": "Improve your information",
          "url": "tema23.0.0.html"
        },
        {
          "tema": "My formative project",
          "url": "tema24.0.0.html"
        },
        {
          "tema": "Formative evaluation",
          "url": "tema25.0.0.html"
        },
        {
          "tema": "Show your improvement",
          "url": "tema26.0.0.html"
        },
        {
          "tema": "Reading comprehension",
          "url": "tema27.0.0.html"
        },
        {
          "tema": "Develop social-emotional skills",
          "url": "tema28.0.0.html"
        },
        {
          "tema": "My project evaluation",
          "url": "tema29.0.0.html"
        },
        {
          "tema": "My knowledge evaluation",
          "url": "tema30.0.0.html"
        },
        {
          "tema": "My performance evaluation",
          "url": "tema31.0.0.html"
        },
        {
          "tema": "List of verbs",
          "url": "tema32.0.0.html"
        }
      ]
    }
  ]
}
